pLECs,DMOG,Day,Well,Value
FALSE,FALSE,1,1,4.663462
FALSE,FALSE,1,1,5.091938
FALSE,FALSE,1,1,5.497771
FALSE,FALSE,1,2,5.860416
FALSE,FALSE,1,2,5.841584
FALSE,FALSE,1,2,5.484765
FALSE,FALSE,2,3,0
FALSE,FALSE,2,3,0
FALSE,FALSE,2,3,0
FALSE,FALSE,2,4,0.006853
FALSE,FALSE,2,4,0
FALSE,FALSE,2,4,0.085267
FALSE,TRUE,1,5,4.794859
FALSE,TRUE,1,5,4.759615
FALSE,TRUE,1,5,6.86986
FALSE,TRUE,1,6,3.587224
FALSE,TRUE,1,6,3.239741
FALSE,TRUE,1,6,3.370246
FALSE,TRUE,2,7,0
FALSE,TRUE,2,7,0
FALSE,TRUE,2,7,0
FALSE,TRUE,2,8,0.004728
FALSE,TRUE,2,8,0.026316
FALSE,TRUE,2,8,0
TRUE,FALSE,1,9,25.03467
TRUE,FALSE,1,9,13.87283
TRUE,FALSE,1,9,11.63265
TRUE,FALSE,1,10,31.28834
TRUE,FALSE,1,10,32.58102
TRUE,FALSE,1,10,36.79876
TRUE,FALSE,2,11,0
TRUE,FALSE,2,11,0
TRUE,FALSE,2,11,0
TRUE,FALSE,2,12,0.004728
TRUE,FALSE,2,12,0.026316
TRUE,FALSE,2,12,0
